PS J1716.2-0312   18.6  19.5  -204631.235  -204631.234  -204631.148  0.001  0.173  -2.650  0.181  -2.574  0.270  58981.263  171841.510  2.659  0.270  -0.005  0.114 
3FGL J1709.5-0335   17.3  20.7  -204631.235  -204630.838  -204631.241  0.795  -0.013  -2.600  0.151  -2.549  0.216  64416.703  173795.802  2.752  0.189  -0.100  0.073 
PS J1716.0-0434   17.3  18.8  -204631.235  -204629.150  -204631.312  4.170  -0.154  -2.412  0.288  -2.405  0.297  999976.837  24215.899  3.003  0.315  -0.182  0.074 
3FGL J1722.7-0415   18.5  17.5  -204631.241  -204629.354  -204630.167  3.773  2.148  -2.441  0.079  -2.280  0.157  20819.532  20565.779  2.242  0.132  0.134  0.077 
PS J1708.0+0019   20.8  23.0  -204621.924  -204621.909  -204621.774  0.030  0.301  -2.002  0.217  -1.842  0.364  119572.813  239596.713  1.880  0.618  0.027  0.126 
PS J1722.9-0501   17.8  17.1  -204621.922  -204621.610  -204621.998  0.624  -0.152  -2.567  0.150  -2.573  0.149  999946.575  41296.737  2.669  0.172  -0.090  0.067 
3FGL J1725.0-0513   17.9  16.6  -204621.918  -204620.468  -204620.470  2.900  2.895  -2.095  0.200  -0.741  0.888  2467.280  1504.819  0.915  0.898  0.598  0.406 
PS J1701.5-0046   18.9  23.9  -204621.917  -204617.568  -204617.495  8.698  8.845  -2.081  0.188  -0.001  0.031  2808.812  692.502  -2.180  2.384  1.287  0.683 
3FGL J1730.5+0023   23.8  18.1  -204621.917  -204614.944  -204613.874  13.947  16.087  -2.263  0.054  -1.921  0.108  11401.761  3863.219  1.941  0.101  0.174  0.048 
3FGL J1730.6-0357   19.8  16.0  -204628.006  -204613.874  -204612.645  28.262  30.721  -2.363  0.064  -0.836  0.458  1651.069  536.831  1.206  0.092  0.732  0.072 
PS J1659.7-0120   18.1  24.0  -204612.642  -204608.834  -204609.589  7.615  6.105  -2.420  0.153  -0.001  0.045  814.193  196.614  1.095  0.931  0.986  0.824 
3FGL J1659.0-0142   17.6  23.9  -204612.642  -204604.918  -204607.478  15.448  10.328  -2.162  0.091  -0.987  0.778  3177.343  2628.325  1.058  0.438  0.460  0.187 
PS J1711.4+0242   23.5  23.4  -204607.477  -204605.125  -204605.788  4.704  3.379  -1.942  0.179  -1.100  0.870  7997.196  7204.316  0.203  0.439  0.542  0.139 
3FGL J1704.4-0528   14.9  20.8  -204607.477  -204607.091  -204607.363  0.772  0.227  -1.955  0.065  -1.926  0.083  564380.907  1098049.908  2.072  0.098  -0.030  0.023 
PS J1737.4-0317   21.3  14.8  -204607.477  -204600.574  -204600.980  13.805  12.993  -2.314  0.154  -0.004  0.079  1397.867  296.555  -0.267  0.975  1.236  0.464 
PS J1656.5-0410   15.0  23.2  -204600.980  -204592.450  -204593.935  17.059  14.089  -2.202  0.121  -0.001  0.033  1412.236  275.046  0.286  0.788  0.901  0.405 
3FGL J1727.6-0654   16.8  15.1  -204593.895  -204593.077  -204593.894  1.636  0.001  -3.012  0.331  -3.015  0.334  945177.149  11180747.938  3.317  0.397  -0.174  0.123 
3FGL J1653.6-0158   16.6  24.9  -204649.075  -204593.887  -204588.460  110.377  121.231  -2.397  0.027  -1.757  0.079  3155.953  432.106  2.130  0.045  0.312  0.037 
PS J1727.2-0724   16.3  15.0  -204588.458  -204581.914  -204583.159  13.088  10.598  -2.297  0.214  -0.000  0.001  1646.368  338.189  -3.390  1.658  2.345  0.683 
