\relax 
\providecommand\hyper@newdestlabel[2]{}
\bibstyle{aa}
\providecommand\HyperFirstAtBeginDocument{\AtBeginDocument}
\HyperFirstAtBeginDocument{\ifx\hyper@anchor\@undefined
\global\let\oldcontentsline\contentsline
\gdef\contentsline#1#2#3#4{\oldcontentsline{#1}{#2}{#3}}
\global\let\oldnewlabel\newlabel
\gdef\newlabel#1#2{\newlabelxx{#1}#2}
\gdef\newlabelxx#1#2#3#4#5#6{\oldnewlabel{#1}{{#2}{#3}}}
\AtEndDocument{\ifx\hyper@anchor\@undefined
\let\contentsline\oldcontentsline
\let\newlabel\oldnewlabel
\fi}
\fi}
\global\let\hyper@last\relax 
\gdef\HyperFirstAtBeginDocument#1{#1}
\providecommand\HyField@AuxAddToFields[1]{}
\providecommand\HyField@AuxAddToCoFields[2]{}
\@writefile{lof}{\contentsline {figure}{\numberline {1}{\ignorespaces Distribution of the significance of the residual for the energy flux in a single bin with respect to the fitted spectral model. This is shown for the lowest-energy bin (black), and for an energy bin near the peak of the statistical power of the analysis ($\sim 2$\nobreakspace  {}GeV, blue). The solid curves are best-fit Gaussians for the two histograms; the best-fit parameters are given in the text of this reply.}}{4}{figure.1}}
\newlabel{fig:signif_bin}{{1}{4}{Distribution of the significance of the residual for the energy flux in a single bin with respect to the fitted spectral model. This is shown for the lowest-energy bin (black), and for an energy bin near the peak of the statistical power of the analysis ($\sim 2$~GeV, blue). The solid curves are best-fit Gaussians for the two histograms; the best-fit parameters are given in the text of this reply}{figure.1}{}}
\@writefile{lof}{\contentsline {figure}{\numberline {2}{\ignorespaces Left: correlation between the significance ($\sqrt  {TS}$) values derived using the Off. and Alt. IEMs. The black (red) points are for sources with $|b| > 2.5^\circ $ ($|b| < 2.5^\circ $). Sources that are detected with $TS > 16$ when using only one of the two IEMs are assigned a $TS$ value near zero for the other IEM for plotting purposes. Right: same, but for $\sqrt  {TS_{\rm  curv}}$, and sources with $\sqrt  {TS_{\rm  curv}}$ also have been assigned values near 0 for plotting purposes.}}{5}{figure.2}}
\newlabel{fig:ts_correl}{{2}{5}{Left: correlation between the significance ($\sqrt {TS}$) values derived using the Off. and Alt. IEMs. The black (red) points are for sources with $|b| > 2.5^\circ $ ($|b| < 2.5^\circ $). Sources that are detected with $TS > 16$ when using only one of the two IEMs are assigned a $TS$ value near zero for the other IEM for plotting purposes. Right: same, but for $\sqrt {TS_{\rm curv}}$, and sources with $\sqrt {TS_{\rm curv}}$ also have been assigned values near 0 for plotting purposes}{figure.2}{}}
\@writefile{lof}{\contentsline {figure}{\numberline {3}{\ignorespaces Positions of sources found with only one of the two IEMs, overlaid on a map showing the statistical significance of the systematic difference between the model counts computed using the two different IEMs: ($(m_{\rm  Off.} - m_{\rm  Alt.})/(m_{\rm  Off.} + m_{\rm  Alt.})/2.)^{1/2}$). The circles (squares) show sources found only with the ``Off.'' (``Alt.'') IEM. The green markers indicate lower-significance sources ($TS<49$). The small 'x' makers indicate sources found with both IEMs.}}{6}{figure.3}}
\newlabel{fig:systmap}{{3}{6}{Positions of sources found with only one of the two IEMs, overlaid on a map showing the statistical significance of the systematic difference between the model counts computed using the two different IEMs: ($(m_{\rm Off.} - m_{\rm Alt.})/(m_{\rm Off.} + m_{\rm Alt.})/2.)^{1/2}$). The circles (squares) show sources found only with the ``Off.'' (``Alt.'') IEM. The green markers indicate lower-significance sources ($TS<49$). The small 'x' makers indicate sources found with both IEMs}{figure.3}{}}
