\relax 
\providecommand\hyper@newdestlabel[2]{}
\providecommand\HyperFirstAtBeginDocument{\AtBeginDocument}
\HyperFirstAtBeginDocument{\ifx\hyper@anchor\@undefined
\global\let\oldcontentsline\contentsline
\gdef\contentsline#1#2#3#4{\oldcontentsline{#1}{#2}{#3}}
\global\let\oldnewlabel\newlabel
\gdef\newlabel#1#2{\newlabelxx{#1}#2}
\gdef\newlabelxx#1#2#3#4#5#6{\oldnewlabel{#1}{{#2}{#3}}}
\AtEndDocument{\ifx\hyper@anchor\@undefined
\let\contentsline\oldcontentsline
\let\newlabel\oldnewlabel
\fi}
\fi}
\global\let\hyper@last\relax 
\gdef\HyperFirstAtBeginDocument#1{#1}
\providecommand\HyField@AuxAddToFields[1]{}
\providecommand\HyField@AuxAddToCoFields[2]{}
\citation{1972ApJ...177..341K}
\citation{Ackermann:2014usa}
\citation{Acero:2015hja}
\citation{Fornasa:2015qua}
\citation{Fornasa:2015qua}
\citation{Ajello:2015mfa}
\@writefile{toc}{\contentsline {paragraph}{1\ \ Scientific rationale}{1}{paragraph*.1}}
\newlabel{sec:intro}{{}{1}{1\ \ Scientific rationale}{paragraph*.1}{}}
\@writefile{toc}{\contentsline {paragraph}{2\ \ Photon fluctuation analysis}{1}{paragraph*.2}}
\newlabel{sec:analysis}{{}{1}{2\ \ Photon fluctuation analysis}{paragraph*.2}{}}
\citation{1993A&A...275....1H}
\citation{1982MNRAS.198..221W}
\citation{2010ApJS..191..222V}
\citation{Ackermann:2015uya}
\citation{TheFermi-LAT:2015ykq}
\citation{Acero:2015hja}
\citation{Atwood:2013dra}
\citation{TheFermi-LAT:2015ykq}
\citation{Acero:2015hja}
\@writefile{toc}{\contentsline {paragraph}{3\ \ Data Selection and Analysis Details}{2}{paragraph*.3}}
\newlabel{sec:details}{{}{2}{3\ \ Data Selection and Analysis Details}{paragraph*.3}{}}
\citation{Ackermann:2013fwa}
\citation{Ackermann:2013fwa}
\citation{Ackermann:2013fwa}
\citation{TheFermi-LAT:2015ykq}
\citation{TheFermi-LAT:2015ykq}
\citation{TheFermi-LAT:2015ykq}
\@writefile{lof}{\contentsline {figure}{\numberline {1}{\ignorespaces {\captionf Left Panel: $dN/dS$ of the 1FHL $>$10 GeV catalog (\cite  {Ackermann:2013fwa}, black points) and best fit (black line) and $1\sigma $ band (grey band) for the result derived with the PFA. The red line indicates $90\%$ of the EGB at $>10$ GeV. Right Panel: best fit (black line) and $1\sigma $ band (grey) for the unresolved fraction of the EGB above 10 GeV for sources with integral flux greater than $S_{\rm  min}$. The 1FHL (green line) and PFA (orange line) sensitivity flux and unresolved EGB fraction are also shown.}}}{3}{figure.1}}
\newlabel{fig:results}{{1}{3}{\captionf Left Panel: $dN/dS$ of the 1FHL $>$10 GeV catalog (\cite {Ackermann:2013fwa}, black points) and best fit (black line) and $1\sigma $ band (grey band) for the result derived with the PFA. The red line indicates $90\%$ of the EGB at $>10$ GeV. Right Panel: best fit (black line) and $1\sigma $ band (grey) for the unresolved fraction of the EGB above 10 GeV for sources with integral flux greater than $S_{\rm min}$. The 1FHL (green line) and PFA (orange line) sensitivity flux and unresolved EGB fraction are also shown}{figure.1}{}}
\@writefile{toc}{\contentsline {paragraph}{4\ \ Feasibility}{3}{paragraph*.4}}
\citation{Ackermann:2013fwa}
\citation{Ackermann:2015tah}
\citation{Bechtol:2015uqb}
\@writefile{toc}{\contentsline {paragraph}{5\ \ Plans and Schedule}{4}{paragraph*.5}}
\bibstyle{ieeetr}
\bibdata{egb_prel}
\bibcite{1972ApJ...177..341K}{{1}{}{{}}{{}}}
\bibcite{Ackermann:2014usa}{{2}{}{{}}{{}}}
\bibcite{Acero:2015hja}{{3}{}{{}}{{}}}
\bibcite{Fornasa:2015qua}{{4}{}{{}}{{}}}
\bibcite{Ajello:2015mfa}{{5}{}{{}}{{}}}
\bibcite{1993A&A...275....1H}{{6}{}{{}}{{}}}
\bibcite{1982MNRAS.198..221W}{{7}{}{{}}{{}}}
\bibcite{2010ApJS..191..222V}{{8}{}{{}}{{}}}
\bibcite{Ackermann:2015uya}{{9}{}{{}}{{}}}
\bibcite{TheFermi-LAT:2015ykq}{{10}{}{{}}{{}}}
\bibcite{Atwood:2013dra}{{11}{}{{}}{{}}}
\bibcite{Ackermann:2013fwa}{{12}{}{{}}{{}}}
\bibcite{Ackermann:2015tah}{{13}{}{{}}{{}}}
\bibcite{Bechtol:2015uqb}{{14}{}{{}}{{}}}
\global\NAT@numberstrue
