\relax 
\citation{2009arXiv0910.2998G}
\citation{Calore:2014xka}
\citation{TheFermi-LAT:2015kwa}
\citation{TheFermi-LAT:2016gc}
\citation{2013arXiv1303.3514A}
\citation{Bertone:2004pz}
\citation{2009arXiv0910.2998G}
\citation{Calore:2014xka}
\citation{Fermi-LAT:2016uux}
\newlabel{FirstPage}{{}{1}{}{}{}}
\@writefile{toc}{\contentsline {title}{Characterizing the inner Galaxy population of pulsars with the {\it  Fermi} Large Area Telescope.}{1}{}}
\@writefile{toc}{\contentsline {abstract}{Abstract}{1}{}}
\citation{Carlson:2014cwa}
\citation{Petrovic:2014uda}
\citation{Cholis:2015dea}
\citation{Bartels:2015aea}
\citation{Lee:2014mza}
\citation{Hooper:2010mq}
\citation{2011JCAP...03..010A}
\citation{Cholis:2014lta}
\citation{Cholis:2014lta}
\citation{TheFermi-LAT:2016gc}
\citation{TheFermi-LAT:2016gc}
\citation{Acero:2015hja}
\citation{Acero:2015hja}
\citation{Acero:2015hja}
\citation{Acero:2015hja}
\citation{Acero:2015hja}
\@writefile{lof}{\contentsline {figure}{\numberline {1}{\ignorespaces Count map of the region considered in the analysis for $E=[0.3,500]$ GeV and with pixel size of $0.1^{\circ }$. The color band is associated to different number of photons per pixel. The position of the sources found in our analysis with the Official IEM are superimposed to the count map with cyan diamonds while the sources found in overdensities are represented with black circles.}}{3}{}}
\newlabel{fig:map}{{1}{3}{}{}{}}
\citation{2005AJ....129.1993M}
\citation{Calore:2014xka}
\citation{TheFermi-LAT:2016gc}
\citation{Calore:2015bsx}
\citation{Calore:2014xka}
\citation{TheFermi-LAT:2016gc}
\citation{2004IAUS..218..105L}
\citation{Calore:2014oga}
\citation{2010ApJ...720..435A}
\citation{Acero:2015hja}
\@writefile{lof}{\contentsline {figure}{\numberline {2}{\ignorespaces Left Panel: Photon index $\Gamma $ and energy cutoff $E_{\rm  {cut}}[\rm  {MeV}]$ of PSR detected by the LAT (MSP blue points and young PSR black points) and of blazars in the 3FGL \cite  {Acero:2015hja} with significance for the curvature larger than 3 (red points). Right Panel: same as in the left panel but for sources detected with $TS^{\rm  {PLE}}_{\rm  {curv}}>9$ in our analysis with the Alternate IEM (black points) and for the subsample of 3FGL PSR in the GC region (blue points) and for objects with SED parameter included in the cyan band (red points).}}{4}{}}
\newlabel{fig:psrblazar}{{2}{4}{}{}{}}
\@writefile{lot}{\contentsline {table}{\numberline {I}{\ignorespaces Best fit and uncertainty of $\Gamma $ and $\qopname  \relax o{log}_{10}(E_{\rm  {cut}} [\rm  {MeV}])$ for our PSR candiates found using different IEM and for $\gamma $-ray PSR in the 3FGL.}}{4}{}}
\newlabel{tab:psrcandspectra}{{I}{4}{}{}{}}
\citation{2004IAUS..218..105L}
\citation{2004IAUS..218..105L}
\citation{Calore:2014xka}
\citation{TheFermi-LAT:2016gc}
\citation{Calore:2014xka}
\citation{TheFermi-LAT:2016gc}
\citation{Calore:2014xka}
\citation{TheFermi-LAT:2016gc}
\citation{Calore:2014xka}
\citation{TheFermi-LAT:2016gc}
\citation{Calore:2014xka}
\citation{TheFermi-LAT:2016gc}
\citation{TheFermi-LAT:2016gc}
\@writefile{lot}{\contentsline {table}{\numberline {II}{\ignorespaces Best fit and uncertainty for $N_{\rm  {disk}}$, $z_0$, $\beta $, $N_{\rm  {inner}}$ and $\alpha $ and $\Delta TS$ with respect to the null hypothesis in the first row for the Alternate (left block) and Official IEM (right block).}}{6}{}}
\newlabel{tab:logresults}{{II}{6}{}{}{}}
\@writefile{toc}{\contentsline {section}{\numberline {}Acknowledgments}{6}{}}
\bibdata{psgcNotes,psgc}
\bibcite{2009arXiv0910.2998G}{{1}{2009}{{{Goodenough} and {Hooper}}}{{}}}
\bibcite{Calore:2014xka}{{2}{2015}{{Calore et~al.}}{{Calore, Cholis, and Weniger}}}
\bibcite{TheFermi-LAT:2015kwa}{{3}{2016}{{Ajello et~al.}}{{}}}
\bibcite{TheFermi-LAT:2016gc}{{4}{2017}{{Ajello et~al.}}{{}}}
\bibcite{2013arXiv1303.3514A}{{5}{2013}{{{Atwood} et~al.}}{{{Atwood}, {Albert}, {Baldini}, {Tinivella}, {Bregeon}, {Pesce-Rollins}, {Sgr{\`o}}, {Bruel}, {Charles}, {Drlica-Wagner} et~al.}}}
\bibcite{Bertone:2004pz}{{6}{2005}{{Bertone et~al.}}{{Bertone, Hooper, and Silk}}}
\bibcite{Fermi-LAT:2016uux}{{7}{2016}{{Albert et~al.}}{{}}}
\bibcite{Carlson:2014cwa}{{8}{2014}{{Carlson and Profumo}}{{}}}
\bibcite{Petrovic:2014uda}{{9}{2014}{{Petrović et~al.}}{{Petrović, Serpico, and Zaharijaš}}}
\bibcite{Cholis:2015dea}{{10}{2015{}}{{Cholis et~al.}}{{Cholis, Evoli, Calore, Linden, Weniger, and Hooper}}}
\bibcite{Bartels:2015aea}{{11}{2016}{{Bartels et~al.}}{{Bartels, Krishnamurthy, and Weniger}}}
\@writefile{lof}{\contentsline {figure}{\numberline {3}{\ignorespaces Left Panel: Latitude profile for the energy spectrum at 2GeV and longitude $0^{\circ }$ for the inner Galaxy PSR in the best fit scenario of Tab.\nobreakspace  {}II{}{}{}\hbox {} for the Alternate IEM run (grey band and black line), and for the GC excess as in \cite  {Calore:2014xka} (cyan band) and in \cite  {TheFermi-LAT:2016gc} (green and red curves). Right Panel: Energy spectrum from all inner Galaxy PSR with the same parameters as before (grey band and black line), and for the GC excess as in \cite  {Calore:2014xka} (cyan band and blue data) and in \cite  {TheFermi-LAT:2016gc} (orange band and red data).}}{7}{}}
\newlabel{fig:bulgepsr}{{3}{7}{}{}{}}
\@writefile{lof}{\contentsline {figure}{\numberline {4}{\ignorespaces Flux hystogram (left panel) and angular distance distribution (right panel) of sources detected with $TS>25$ in the analysis of the real sky with both the IEM (Official in black and Alternate brown data) and with simulations that include blazars/disk PSR (red data) or blazars/disk/inner Galaxy PSR (blue data) or blazars/disk/ and DM contribution (green data).}}{7}{}}
\newlabel{fig:fluxhisto}{{4}{7}{}{}{}}
\@writefile{toc}{\contentsline {section}{\numberline {}References}{7}{}}
\bibcite{Lee:2014mza}{{12}{2015}{{Lee et~al.}}{{Lee, Lisanti, and Safdi}}}
\bibcite{Hooper:2010mq}{{13}{2011}{{Hooper and Goodenough}}{{}}}
\bibcite{2011JCAP...03..010A}{{14}{2011}{{{Abazajian}}}{{}}}
\bibcite{Cholis:2014lta}{{15}{2015{}}{{Cholis et~al.}}{{Cholis, Hooper, and Linden}}}
\bibcite{Acero:2015hja}{{16}{2015}{{Acero et~al.}}{{}}}
\bibcite{2005AJ....129.1993M}{{17}{2005}{{{Manchester} et~al.}}{{{Manchester}, {Hobbs}, {Teoh}, and {Hobbs}}}}
\bibcite{Calore:2015bsx}{{18}{2016}{{Calore et~al.}}{{Calore, Di~Mauro, Donato, Hessels, and Weniger}}}
\bibcite{2004IAUS..218..105L}{{19}{2004}{{{Lorimer}}}{{}}}
\bibcite{Calore:2014oga}{{20}{2014}{{Calore et~al.}}{{Calore, Di~Mauro, Donato, and Donato}}}
\bibcite{2010ApJ...720..435A}{{21}{2010}{{{Abdo} et~al.}}{{}}}
\bibcite{2013MNRAS.434.1387L}{{22}{2013}{{{Levin} et~al.}}{{{Levin}, {Bailes}, {Barsdell}, {Bates}, {Bhat}, {Burgay}, {Burke-Spolaor}, {Champion}, {Coster}, {D'Amico} et~al.}}}
\bibcite{2013IAUS..291..237L}{{23}{2013}{{{Lorimer}}}{{}}}
\newlabel{LastBibItem}{{23}{8}{}{}{}}
\citation{2005AJ....129.1993M}
\@writefile{toc}{\appendix }
\newlabel{sec:appendix}{{}{9}{}{}{}}
\@writefile{toc}{\contentsline {section}{\numberline {}Analysis Pipeline and description of Fermipy tools}{9}{}}
\newlabel{sec:fermipy}{{}{9}{}{}{}}
\@writefile{toc}{\contentsline {section}{\numberline {}Characteristic of Pulsar Candidate}{9}{}}
\newlabel{sec:psrcand}{{}{9}{}{}{}}
\@writefile{toc}{\contentsline {section}{\numberline {}Bulding the Disk and Inner Galaxy Populations}{9}{}}
\newlabel{sec:psrsim}{{}{9}{}{}{}}
\@writefile{lot}{\contentsline {table}{\numberline {III}{\ignorespaces Best fit and uncertainty for the SED parameters of PSR candidates derived with both the analysis performed with the Official and Alternate IEM. The longitude, latitude and $68\%$ uncertainty for the position (pos\_68) is also listed.}}{10}{}}
\newlabel{tab:psrcandoff1}{{III}{10}{}{}{}}
\@writefile{lot}{\contentsline {table}{\numberline {IV}{\ignorespaces Continuation of Tab.\nobreakspace  {}III{}{}{}\hbox {}}}{11}{}}
\newlabel{tab:psrcandoff2}{{IV}{11}{}{}{}}
\@writefile{lot}{\contentsline {table}{\numberline {V}{\ignorespaces Same as in Tab.\nobreakspace  {}IV{}{}{}\hbox {} but for the PSR candidates found only for the analysis where the Official IEM is considered.}}{11}{}}
\newlabel{tab:psrcandref2}{{V}{11}{}{}{}}
\@writefile{lot}{\contentsline {table}{\numberline {VI}{\ignorespaces Same as in Tab.\nobreakspace  {}IV{}{}{}\hbox {} but for the PSR candidates found only for the analysis where the Alternate IEM is considered.}}{12}{}}
\newlabel{tab:psrcandref1}{{VI}{12}{}{}{}}
\@writefile{lot}{\contentsline {table}{\numberline {VII}{\ignorespaces Same as in Tab.\nobreakspace  {}IV{}{}{}\hbox {} but for the PSR candidates found only for the analysis where the Alternate IEM is considered.}}{13}{}}
\newlabel{tab:psrcandref1}{{VII}{13}{}{}{}}
\citation{2004IAUS..218..105L}
\citation{2013MNRAS.434.1387L}
\citation{2013IAUS..291..237L}
\citation{2004IAUS..218..105L}
\citation{Calore:2014oga}
\citation{Calore:2014xka}
\citation{TheFermi-LAT:2016gc}
\citation{Calore:2014xka}
\citation{TheFermi-LAT:2016gc}
\citation{Calore:2014xka}
\citation{TheFermi-LAT:2016gc}
\citation{Calore:2014xka}
\citation{TheFermi-LAT:2016gc}
\citation{Calore:2014xka}
\citation{TheFermi-LAT:2016gc}
\citation{Calore:2014xka}
\citation{TheFermi-LAT:2016gc}
\citation{Calore:2014xka}
\citation{TheFermi-LAT:2016gc}
\citation{2010ApJ...720..435A}
\citation{Acero:2015hja}
\citation{2010ApJ...720..435A}
\citation{2010ApJ...720..435A}
\@writefile{lof}{\contentsline {figure}{\numberline {5}{\ignorespaces Left Panel: Luminosity function for young PSR (blue data), MSP (red data) and the whole population (black data). The best fit to the data is also reported (black line) together with the luminosity of the brightest PSR (vertical red dashed line). Right Panel: .}}{15}{}}
\newlabel{fig:dNdLNSdisk}{{5}{15}{}{}{}}
\@writefile{lof}{\contentsline {figure}{\numberline {6}{\ignorespaces Left Panel: Latitude profile for the energy spectrum at 2GeV and longitude $0^{\circ }$ for the inner Galaxy PSR with $N_{\rm  {inner}}=[300,1200]$ (grey band and black line), and for the GC excess as in \cite  {Calore:2014xka} (cyan band) and in \cite  {TheFermi-LAT:2016gc} (green and red curves). Right Panel: Energy spectrum from all inner Galaxy PSR with $N_{\rm  {inner}}=[300,1200]$ (grey band and black line), and for the GC excess as in \cite  {Calore:2014xka} (cyan band and blue data) and in \cite  {TheFermi-LAT:2016gc} (orange band and red data).}}{15}{}}
\newlabel{fig:bulgepsr}{{6}{15}{}{}{}}
\@writefile{toc}{\contentsline {section}{\numberline {}Efficiency for the detection of Pulsar candidate and source confusion}{15}{}}
\bibstyle{apsrev4-1}
\citation{REVTEX41Control}
\citation{apsrev41Control}
\newlabel{eq:efficiency}{{3}{16}{}{}{}}
\@writefile{toc}{\contentsline {section}{\numberline {}Systematics on the Maximum Likelihood Analysis}{16}{}}
\@writefile{lof}{\contentsline {figure}{\numberline {7}{\ignorespaces Efficiency for the detection of a PSR candidate for different angular distances ($d_{\rm  {GC}}$) and different rings around the GC.}}{17}{}}
\newlabel{fig:efficiency}{{7}{17}{}{}{}}
\@writefile{lof}{\contentsline {figure}{\numberline {8}{\ignorespaces This plot shows for different angular distances from the GC, the average number of simulated sources ($N$) that have a position within the $95\%$ of the positional error of a PSR candidate.}}{17}{}}
\newlabel{fig:confusion}{{8}{17}{}{}{}}
\newlabel{LastPage}{{}{17}{}{}{}}
