\relax 
\providecommand\hyper@newdestlabel[2]{}
\providecommand\HyperFirstAtBeginDocument{\AtBeginDocument}
\HyperFirstAtBeginDocument{\ifx\hyper@anchor\@undefined
\global\let\oldcontentsline\contentsline
\gdef\contentsline#1#2#3#4{\oldcontentsline{#1}{#2}{#3}}
\global\let\oldnewlabel\newlabel
\gdef\newlabel#1#2{\newlabelxx{#1}#2}
\gdef\newlabelxx#1#2#3#4#5#6{\oldnewlabel{#1}{{#2}{#3}}}
\AtEndDocument{\ifx\hyper@anchor\@undefined
\let\contentsline\oldcontentsline
\let\newlabel\oldnewlabel
\fi}
\fi}
\global\let\hyper@last\relax 
\gdef\HyperFirstAtBeginDocument#1{#1}
\providecommand\HyField@AuxAddToFields[1]{}
\providecommand\HyField@AuxAddToCoFields[2]{}
\newlabel{FirstPage}{{}{1}{}{section*.1}{}}
\@writefile{toc}{\contentsline {abstract}{ABSTRACT}{1}{section*.1}}
\citation{2009arXiv0910.2998G}
\citation{2012PhRvD..86h3511A}
\citation{2013PDU.....2..118H}
\citation{2013PhRvD..88h3521G}
\citation{Abazajian:2014fta}
\citation{Calore:2014xka}
\citation{2016PDU....12....1D}
\citation{1996ApJ...462..563N}
\citation{1998ApJ...502...48K}
\citation{1996ApJ...461..396M}
\citation{2016ApJ...819...44A}
\citation{TheFermi-LAT:2017vmf}
\citation{2013arXiv1303.3514A}
\citation{2010ApJ...724.1044S}
\citation{2014ApJ...793...64A}
\citation{2016ApJ...819...44A}
\citation{TheFermi-LAT:2017vmf}
\citation{2009arXiv0910.2998G}
\citation{Abazajian:2014fta}
\citation{Calore:2014xka}
\citation{2016PDU....12....1D}
\citation{Steigman:2012nb}
\citation{2008Natur.454.1096S}
\citation{2017ApJ...834..110A}
\citation{Carlson:2014cwa}
\citation{Petrovic:2014uda}
\citation{Cholis:2015dea}
\citation{Gaggero:2015nsa}
\citation{Petrovic:2014uda}
\citation{Gaggero:2015nsa}
\citation{Carlson:2015ona}
\@writefile{toc}{\contentsline {section}{\numberline {1}Introduction}{2}{section.1}}
\citation{Lee:2014mza}
\citation{Bartels:2015aea}
\citation{Cholis:2014lta}
\citation{2013MNRAS.436.2461M}
\citation{Gregoire:2013yta}
\citation{2014JHEAp...3....1Y}
\citation{Petrovic:2014xra}
\citation{2015ApJ...812...15B}
\citation{OLeary:2015qpx}
\citation{OLeary:2016cwz}
\citation{2016A&A...587A.109G}
\citation{Hooper:2010mq}
\citation{2011JCAP...03..010A}
\citation{Calore:2014oga}
\citation{Cholis:2014lta}
\citation{2005AJ....129.1993M}
\citation{2013ApJS..208...17A}
\citation{Calore:2015bsx}
\citation{Calore:2015bsx}
\citation{2010MNRAS.409..619K}
\citation{2013CQGra..30v4003S}
\citation{2015aska.confE..36K}
\citation{DiMauro:2015tfa}
\citation{2015ApJ...799...86A}
\citation{2016ApJS..223...26A}
\citation{TheFermi-LAT:2017vmf}
\citation{TheFermi-LAT:2017vmf}
\@writefile{toc}{\contentsline {section}{\numberline {2}Data selection and background models}{3}{section.2}}
\newlabel{sec:datasel}{{2}{3}{Data selection and background models}{section.2}{}}
\@writefile{toc}{\contentsline {section}{\numberline {3}Analysis pipeline and source list}{3}{section.3}}
\newlabel{sec:sourcelist}{{3}{3}{Analysis pipeline and source list}{section.3}{}}
\citation{2015ApJS..218...23A}
\citation{Calore:2014xka}
\citation{2016ApJ...819...44A}
\citation{TheFermi-LAT:2017vmf}
\@writefile{lof}{\contentsline {figure}{\numberline {1}{\ignorespaces Counts map of the $40^{\circ }\times 40^{\circ }$ ROI used in this analysis. The map includes data for the range $[0.3,500]$ GeV. The map is in Hammer-Aitoff projection, centered on the GC and in Galactic coordinates. The pixel size is $0.1^{\circ }$. The color scale shows the number of photons per pixel. Markers are shown at the positions of sources found in our analysis with the Off. IEM. White markers show sources associated with a 3FGL source and green markers show new sources with no 3FGL counterpart. Stars (squares) indicate sources that are (not) PSR-like and purple markers indicate sources belonging to a cluster, and the clusters are outlined with purple circles (see text for details). Finally, blue stars show PSRs identified as or associated in the 3FGL.}}{4}{figure.1}}
\newlabel{fig:map}{{1}{4}{Counts map of the $40^{\circ }\times 40^{\circ }$ ROI used in this analysis. The map includes data for the range $[0.3,500]$ GeV. The map is in Hammer-Aitoff projection, centered on the GC and in Galactic coordinates. The pixel size is $0.1^{\circ }$. The color scale shows the number of photons per pixel. Markers are shown at the positions of sources found in our analysis with the Off. IEM. White markers show sources associated with a 3FGL source and green markers show new sources with no 3FGL counterpart. Stars (squares) indicate sources that are (not) PSR-like and purple markers indicate sources belonging to a cluster, and the clusters are outlined with purple circles (see text for details). Finally, blue stars show PSRs identified as or associated in the 3FGL}{figure.1}{}}
\@writefile{toc}{\contentsline {section}{\numberline {4}Systematic biases in source-finding and PSR selection criteria efficiency from uncertainties in the IEMs}{4}{section.4}}
\newlabel{sec:systsource}{{4}{4}{Systematic biases in source-finding and PSR selection criteria efficiency from uncertainties in the IEMs}{section.4}{}}
\@writefile{lof}{\contentsline {figure}{\numberline {2}{\ignorespaces Left: correlation between the significance ($\sqrt  {TS}$) derived using the Off. and Alt. IEMs. The black (red) points are for sources with $|b| > 2.5^\circ $ ($|b| < 2.5^\circ $). Sources that are detected with $TS > 16$ for only one of the two IEMs are assigned a $TS$ value near zero for the other IEM for plotting purposes. Right: same, but for $\sqrt  {TS_{\rm  curv}}$; again, sources detected with both only one IEM have been a $TS$ value near zero for the other IEM.}}{5}{figure.2}}
\newlabel{fig:ts_correl}{{2}{5}{Left: correlation between the significance ($\sqrt {TS}$) derived using the Off. and Alt. IEMs. The black (red) points are for sources with $|b| > 2.5^\circ $ ($|b| < 2.5^\circ $). Sources that are detected with $TS > 16$ for only one of the two IEMs are assigned a $TS$ value near zero for the other IEM for plotting purposes. Right: same, but for $\sqrt {TS_{\rm curv}}$; again, sources detected with both only one IEM have been a $TS$ value near zero for the other IEM}{figure.2}{}}
\@writefile{lof}{\contentsline {figure}{\numberline {3}{\ignorespaces The color scale shows the statistical significance of the difference between the two IEMs integrated over the range $E = [0.3,500]$\nobreakspace  {}GeV. Sources found with both IEMs are indicated with 'x' markers. Square (circle) markers show sources found only with the Off. (Alt.) IEM. The cyan markers show sources that have a corresponding sub-threshold candidate with $16 \le TS < 25$ using the other IEM. Green markers show low significance sources with $25 \le TS < 49$; white circles and squares show high signficance sources with $TS \ge 49$.}}{5}{figure.3}}
\newlabel{fig:systmap}{{3}{5}{The color scale shows the statistical significance of the difference between the two IEMs integrated over the range $E = [0.3,500]$~GeV. Sources found with both IEMs are indicated with 'x' markers. Square (circle) markers show sources found only with the Off. (Alt.) IEM. The cyan markers show sources that have a corresponding sub-threshold candidate with $16 \le TS < 25$ using the other IEM. Green markers show low significance sources with $25 \le TS < 49$; white circles and squares show high signficance sources with $TS \ge 49$}{figure.3}{}}
\citation{2015ApJS..218...23A}
\citation{2012ApJ...751..108A}
\citation{DiMauro:2013zfa}
\citation{Ackermann:2015yfk}
\citation{Ghisellini:2017ico}
\citation{2013ApJS..208...17A}
\citation{2004IAUS..218..105L}
\citation{Calore:2014oga}
\citation{2015ApJS..218...23A}
\@writefile{lof}{\contentsline {figure}{\numberline {4}{\ignorespaces Same as Figure\nobreakspace  {}\ref  {fig:systmap}, but for one of the $8^{\circ }\times 8^{\circ }$ ROIs used in the analysis pipeline, and for the complete model map at the end of the analysis pipeline, using the fitted values of the IEM normalization.}}{6}{figure.4}}
\newlabel{fig:systmap_roi43}{{4}{6}{Same as Figure~\ref {fig:systmap}, but for one of the $8^{\circ }\times 8^{\circ }$ ROIs used in the analysis pipeline, and for the complete model map at the end of the analysis pipeline, using the fitted values of the IEM normalization}{figure.4}{}}
\@writefile{toc}{\contentsline {section}{\numberline {5}SED of pulsars and blazars}{6}{section.5}}
\newlabel{sec:psrblazar}{{5}{6}{SED of pulsars and blazars}{section.5}{}}
\@writefile{lof}{\contentsline {figure}{\numberline {5}{\ignorespaces Estimated significance of residuals, $({\rm  data} - {\rm  model})/\sqrt  {\rm  model}$, for the Off. (left) and Alt. (right). The markers have the same meanings as for Figures\nobreakspace  {}\ref  {fig:systmap} and \ref  {fig:systmap_roi43}. Gaussian smoothing with a width of $\sigma =0.18^\circ $ has been applied.}}{7}{figure.5}}
\newlabel{fig:signif_resid}{{5}{7}{Estimated significance of residuals, $({\rm data} - {\rm model})/\sqrt {\rm model}$, for the Off. (left) and Alt. (right). The markers have the same meanings as for Figures~\ref {fig:systmap} and \ref {fig:systmap_roi43}. Gaussian smoothing with a width of $\sigma =0.18^\circ $ has been applied}{figure.5}{}}
\@writefile{lof}{\contentsline {figure}{\numberline {6}{\ignorespaces Distribution of estimated significance of residuals for $0.48^\circ \times 0.48^\circ $ spatial bins in the 16 ROIs along the Galactic plane. The solid lines show Gaussian fits to the two distributions. The best-fit mean and width are $\mu = 0.1, \sigma = 1.6$ ($\mu = 0.3, \sigma = 1.8$) for the Off. (Alt.) IEM.}}{7}{figure.6}}
\newlabel{fig:resid_hist}{{6}{7}{Distribution of estimated significance of residuals for $0.48^\circ \times 0.48^\circ $ spatial bins in the 16 ROIs along the Galactic plane. The solid lines show Gaussian fits to the two distributions. The best-fit mean and width are $\mu = 0.1, \sigma = 1.6$ ($\mu = 0.3, \sigma = 1.8$) for the Off. (Alt.) IEM}{figure.6}{}}
\@writefile{lof}{\contentsline {figure}{\numberline {7}{\ignorespaces Distribution of the significance of the residual for the energy flux in a single bin with respect to fitted spectral model for the PSR candidates found with the Off. IEM analysis.}}{7}{figure.7}}
\newlabel{fig:signif_bin}{{7}{7}{Distribution of the significance of the residual for the energy flux in a single bin with respect to fitted spectral model for the PSR candidates found with the Off. IEM analysis}{figure.7}{}}
\citation{2013ApJS..208...17A}
\citation{2010ApJ...720..435A}
\citation{2010ApJS..188..405A}
\citation{2015ApJS..218...23A}
\@writefile{lof}{\contentsline {figure}{\numberline {8}{\ignorespaces Left: photon index $\Gamma $ and energy cutoff $E_{\rm  {cut}}[\rm  {MeV}]$ of PSRs and blazars detected in our analysis with $TS^{\rm  {PLE}}_{\rm  {curv}}>9$. MSPs are shown as blue plus signs and young PSRs as red crosses. Here we are showing blazars in the 3FGL\nobreakspace  {}\citep  {2015ApJS..218...23A} catalog with curvature significance as in the 3FGL ($\texttt  {Signif\_Curve}$) larger than 3 (green circles). Right: same as in the left panel but applied to sources in our $40^{\circ }\times 40^{\circ }$ ROI detected with $TS^{\rm  {PLE}}_{\rm  {curv}}>9$ in our analysis with the Off. IEM (black circles) and Alt. IEM (red crosses).}}{8}{figure.8}}
\newlabel{fig:psrblazar}{{8}{8}{Left: photon index $\Gamma $ and energy cutoff $E_{\rm {cut}}[\rm {MeV}]$ of PSRs and blazars detected in our analysis with $TS^{\rm {PLE}}_{\rm {curv}}>9$. MSPs are shown as blue plus signs and young PSRs as red crosses. Here we are showing blazars in the 3FGL~\citep {2015ApJS..218...23A} catalog with curvature significance as in the 3FGL ($\texttt {Signif\_Curve}$) larger than 3 (green circles). Right: same as in the left panel but applied to sources in our $40^{\circ }\times 40^{\circ }$ ROI detected with $TS^{\rm {PLE}}_{\rm {curv}}>9$ in our analysis with the Off. IEM (black circles) and Alt. IEM (red crosses)}{figure.8}{}}
\@writefile{toc}{\contentsline {section}{\numberline {6}Luminosity Distribution of PSRs}{8}{section.6}}
\newlabel{sec:lumi_dist}{{6}{8}{Luminosity Distribution of PSRs}{section.6}{}}
\@writefile{lot}{\contentsline {table}{\numberline {1}{\ignorespaces Spectral parameters of PSR candidates compared with known PSRs.}}{8}{table.1}}
\newlabel{tab:psrcandspectra}{{1}{8}{Spectral parameters of PSR candidates compared with known PSRs}{table.1}{}}
\citation{Strong:2006hf}
\citation{Cholis:2014noa}
\citation{Petrovic:2014xra}
\citation{Bartels:2015aea}
\citation{2005AJ....129.1993M}
\citation{Cholis:2014noa}
\citation{Hooper:2015jlu}
\citation{Winter:2016wmy}
\citation{Winter:2016wmy}
\citation{2013ApJS..208...17A}
\citation{2004IAUS..218..105L}
\citation{Calore:2014oga}
\citation{2013MNRAS.434.1387L}
\citation{2013IAUS..291..237L}
\citation{2004IAUS..218..105L}
\citation{2016A&A...587A.109G}
\@writefile{lof}{\contentsline {figure}{\numberline {9}{\ignorespaces Observed luminosities for young PSRs (red data), MSPs (blue data) and the whole population of PSRs with $d<1.5$ kpc (black data). The best fit to the luminosity distribution for $L> 3\times 10^{33}$ erg s$^{-1}$ is also reported (black line). The luminosity is integrated over the energy range $[0.3,500]$ GeV.}}{9}{figure.9}}
\newlabel{fig:dNdLN}{{9}{9}{Observed luminosities for young PSRs (red data), MSPs (blue data) and the whole population of PSRs with $d<1.5$ kpc (black data). The best fit to the luminosity distribution for $L> 3\times 10^{33}$ erg s$^{-1}$ is also reported (black line). The luminosity is integrated over the energy range $[0.3,500]$ GeV}{figure.9}{}}
\@writefile{toc}{\contentsline {section}{\numberline {7}Simulating the Galactic PSR population}{9}{section.7}}
\newlabel{sec:gal_dist}{{7}{9}{Simulating the Galactic PSR population}{section.7}{}}
\@writefile{toc}{\contentsline {subsection}{\numberline {7.1}Galactic Disk PSRs}{9}{subsection.7.1}}
\newlabel{sec:disk_dist}{{7.1}{9}{Galactic Disk PSRs}{subsection.7.1}{}}
\citation{2011ApJ...742..126D}
\citation{2004IAUS..218..105L}
\citation{2012PhRvD..86h3511A}
\citation{2015ApJ...812...15B}
\citation{Bartels:2015aea}
\citation{Hooper:2015jlu}
\citation{Calore:2014xka}
\citation{2016PDU....12....1D}
\citation{2016ApJ...819...44A}
\citation{TheFermi-LAT:2017vmf}
\citation{Calore:2014xka}
\citation{TheFermi-LAT:2017vmf}
\citation{Calore:2014xka}
\citation{TheFermi-LAT:2017vmf}
\citation{Calore:2014xka}
\citation{TheFermi-LAT:2017vmf}
\citation{Calore:2014xka}
\citation{TheFermi-LAT:2017vmf}
\@writefile{lof}{\contentsline {figure}{\numberline {10}{\ignorespaces Flux histogram of 3FGL PSRs alone (red triangles) or added to the flux distribution of unassociated 3FGL sources with curvature $\texttt  {Signif\_Curve}>3$ (black points). The cyan band represents the region between the lower limit (already detected PSRs) and upper limit (3FGL PSRs plus unassociated 3FGL sources with detected spectral curvature). Finally the black curve (gray band) represents the benchmark (band between the minimum and maximum) number of disk PSRs. The flux is integrated over the energy range $[0.3,500]$ GeV.}}{10}{figure.10}}
\newlabel{fig:Sdisk}{{10}{10}{Flux histogram of 3FGL PSRs alone (red triangles) or added to the flux distribution of unassociated 3FGL sources with curvature $\texttt {Signif\_Curve}>3$ (black points). The cyan band represents the region between the lower limit (already detected PSRs) and upper limit (3FGL PSRs plus unassociated 3FGL sources with detected spectral curvature). Finally the black curve (gray band) represents the benchmark (band between the minimum and maximum) number of disk PSRs. The flux is integrated over the energy range $[0.3,500]$ GeV}{figure.10}{}}
\@writefile{toc}{\contentsline {subsection}{\numberline {7.2}Galactic Bulge PSRs}{10}{subsection.7.2}}
\newlabel{sec:bulge_dist}{{7.2}{10}{Galactic Bulge PSRs}{subsection.7.2}{}}
\@writefile{toc}{\contentsline {subsection}{\numberline {7.3}Full Model}{10}{subsection.7.3}}
\@writefile{lof}{\contentsline {figure}{\numberline {11}{\ignorespaces Left panel: latitude profile of the intensity of the GC excess at 2\nobreakspace  {}GeV and longitude $0^{\circ }$ for a simulation of a Galactic bulge PSR population that could reproduce the GC excess, i.e., $N_{\rm  {bulge}}=[800, 3600]$ for $L = [10^{33},10^{36]}$ erg s$^{-1}$}}{11}{figure.11}}
\newlabel{fig:bulgepsr}{{11}{11}{Left panel: latitude profile of the intensity of the GC excess at 2~GeV and longitude $0^{\circ }$ for a simulation of a Galactic bulge PSR population that could reproduce the GC excess, i.e., $N_{\rm {bulge}}=[800, 3600]$ for $L = [10^{33},10^{36]}$ erg s$^{-1}$}{figure.11}{}}
\@writefile{lof}{\contentsline {figure}{\numberline {12}{\ignorespaces {\color  {blue}{This plot needs to be updated}} Positions of all simulated blazars (cyan triangles), Galactic disk (red stars) and Galactic bulge (black circles) PSRs from a single realization of the $40^{\circ }\times 40^{\circ }$ ROI.}}{11}{figure.12}}
\newlabel{fig:mapsim}{{12}{11}{\newtext {This plot needs to be updated} Positions of all simulated blazars (cyan triangles), Galactic disk (red stars) and Galactic bulge (black circles) PSRs from a single realization of the $40^{\circ }\times 40^{\circ }$ ROI}{figure.12}{}}
\@writefile{toc}{\contentsline {section}{\numberline {8}Efficiency for the detection of pulsar candidates and source confusion}{11}{section.8}}
\newlabel{sec:efficiency}{{8}{11}{Efficiency for the detection of pulsar candidates and source confusion}{section.8}{}}
\citation{2004IAUS..218..105L}
\@writefile{lof}{\contentsline {figure}{\numberline {13}{\ignorespaces Left Panel: Efficiency $\omega $ for the detection of a PSR candidate as a function of latitude $|b|$ and energy flux $S$. This plot is averaged over $20^{\circ }$ of longitude around the GC and the flux is integrated over $[0.3,500]$ GeV and corresponds to 7.5 years of data selected as described in Section\nobreakspace  {}\ref  {sec:datasel}. Right Panel: ratio between the efficiency derived with $\beta =1.70$ and the one with $\beta =2.20$.}}{12}{figure.13}}
\newlabel{fig:efficiency}{{13}{12}{Left Panel: Efficiency $\omega $ for the detection of a PSR candidate as a function of latitude $|b|$ and energy flux $S$. This plot is averaged over $20^{\circ }$ of longitude around the GC and the flux is integrated over $[0.3,500]$ GeV and corresponds to 7.5 years of data selected as described in Section~\ref {sec:datasel}. Right Panel: ratio between the efficiency derived with $\beta =1.70$ and the one with $\beta =2.20$}{figure.13}{}}
\@writefile{lof}{\contentsline {figure}{\numberline {14}{\ignorespaces {\color  {blue}{This plot needs to be updated}} Average number of simulated sources ($N_{\rm  sim}$) within the $95\%$ positional error of each detected simulated PSR candidate as a function of angular distance from the GC ($d_{\rm  GC}$).}}{12}{figure.14}}
\newlabel{fig:confusion}{{14}{12}{\newtext {This plot needs to be updated} Average number of simulated sources ($N_{\rm sim}$) within the $95\%$ positional error of each detected simulated PSR candidate as a function of angular distance from the GC ($d_{\rm GC}$)}{figure.14}{}}
\newlabel{eq:efficiency}{{1}{12}{Efficiency for the detection of pulsar candidates and source confusion}{equation.8.1}{}}
\@writefile{lof}{\contentsline {figure}{\numberline {15}{\ignorespaces Corrected efficiency ($\Omega $) for energy fluxes between $10^{-6}$ and $10^{-4}$ MeV ${\rm  cm}^{-2} {\rm  s}^{-1}$. The color scale shows the fraction of sources generated with $S^{\rm  {true}}$ detected with $S^{\rm  {obs}}$.}}{12}{figure.15}}
\newlabel{fig:flux_dispersion}{{15}{12}{Corrected efficiency ($\Omega $) for energy fluxes between $10^{-6}$ and $10^{-4}$ MeV ${\rm cm}^{-2} {\rm s}^{-1}$. The color scale shows the fraction of sources generated with $S^{\rm {true}}$ detected with $S^{\rm {obs}}$}{figure.15}{}}
\newlabel{eq:Nefficiency}{{2}{12}{Efficiency for the detection of pulsar candidates and source confusion}{equation.8.2}{}}
\@writefile{toc}{\contentsline {section}{\numberline {9}Maximum Likelihood Analysis}{12}{section.9}}
\newlabel{sec:MLA}{{9}{12}{Maximum Likelihood Analysis}{section.9}{}}
\citation{Calore:2014oga}
\citation{2004IAUS..218..105L}
\@writefile{toc}{\contentsline {section}{\numberline {10}Results}{13}{section.10}}
\newlabel{sec:resultspar}{{10}{13}{Results}{section.10}{}}
\@writefile{toc}{\contentsline {subsection}{\numberline {10.1}Validation of the analysis}{13}{subsection.10.1}}
\newlabel{sec:validation}{{10.1}{13}{Validation of the analysis}{subsection.10.1}{}}
\@writefile{lof}{\contentsline {figure}{\numberline {16}{\ignorespaces This plot shows the efficiency that we use for our validation tests.}}{13}{figure.16}}
\newlabel{fig:effvalidation}{{16}{13}{This plot shows the efficiency that we use for our validation tests}{figure.16}{}}
\@writefile{toc}{\contentsline {subsection}{\numberline {10.2}Results on the real sky}{13}{subsection.10.2}}
\newlabel{sec:resultspar}{{10.2}{13}{Results on the real sky}{subsection.10.2}{}}
\citation{Hooper:2015jlu}
\citation{2004IAUS..218..105L}
\citation{Calore:2014oga}
\citation{2004IAUS..218..105L}
\citation{2015ApJS..218...23A}
\citation{2016ApJ...819...44A}
\citation{2004IAUS..218..105L}
\citation{Calore:2014oga}
\citation{Calore:2014xka}
\citation{TheFermi-LAT:2017vmf}
\@writefile{lot}{\contentsline {table}{\numberline {2}{\ignorespaces Results of the validation test derived with the maximum likelihood fits to the number of PSR candidates from our mock data.}}{14}{table.2}}
\newlabel{tab:validationres}{{2}{14}{Results of the validation test derived with the maximum likelihood fits to the number of PSR candidates from our mock data}{table.2}{}}
\@writefile{lot}{\contentsline {table}{\numberline {3}{\ignorespaces {\color  {blue}{Results for the Alt. IEM need to be modified.}} Results from the maximum likelihood fits to the number of observed PSR candidates.}}{14}{table.3}}
\newlabel{tab:logresults}{{3}{14}{\newtext {Results for the Alt. IEM need to be modified.} Results from the maximum likelihood fits to the number of observed PSR candidates}{table.3}{}}
\@writefile{toc}{\contentsline {section}{\numberline {11}Conclusions}{14}{section.11}}
\newlabel{sec:conclusions}{{11}{14}{Conclusions}{section.11}{}}
\citation{bartels:XX}
\bibdata{paperNotes,paper}
\bibcite{2011JCAP...03..010A}{{1}{2011}{{Abazajian}}{{}}}
\bibcite{Abazajian:2014fta}{{2}{2014}{{Abazajian {et~al.}}}{{Abazajian, Canac, Horiuchi, \& Kaplinghat}}}
\bibcite{2012PhRvD..86h3511A}{{3}{2012}{{{Abazajian} \& {Kaplinghat}}}{{}}}
\bibcite{2010ApJS..188..405A}{{4}{2010{a}}{{{Abdo} {et~al.}}}{{{Abdo}, {Ackermann}, {Ajello}, {Allafort}, {Antolini}, {Atwood}, {Axelsson}, {Baldini}, {Ballet}, {Barbiellini}, \& et~al.}}}
\bibcite{2010ApJ...720..435A}{{5}{2010{b}}{{{Abdo} {et~al.}}}{{{Abdo}, {Ackermann}, {Ajello}, {Antolini}, {Baldini}, {Ballet}, {Barbiellini}, {Bastieri}, {Baughman}, {Bechtol}, {Bellazzini}, {Berenji}, {Blandford}, {Bloom}, {Bonamente}, {Borgland}, {Bouvier}, {Bregeon}, {Brez}, {Brigida}, {Bruel}, {Burnett}, {Buson}, {Caliandro}, {Cameron}, {Caraveo}, {Carrigan}, {Casandjian}, {Cavazzuti}, {Cecchi}, {{\c C}elik}, {Charles}, {Chekhtman}, {Cheung}, {Chiang}, {Ciprini}, {Claus}, {Cohen-Tanugi}, {Conrad}, {Costamante}, {Cutini}, {Dermer}, {de Angelis}, {de Palma}, {Silva}, {Drell}, {Dubois}, {Dumora}, {Farnier}, {Favuzzi}, {Fegan}, {Focke}, {Fukazawa}, {Funk}, {Fusco}, {Gargano}, {Gasparrini}, {Gehrels}, {Germani}, {Giglietto}, {Giommi}, {Giordano}, {Glanzman}, {Godfrey}, {Grenier}, {Grove}, {Guiriec}, {Hadasch}, {Hayashida}, {Hays}, {Healey}, {Horan}, {Hughes}, {Itoh}, {J{\'o}hannesson}, {Johnson}, {Johnson}, {Johnson}, {Kamae}, {Katagiri}, {Kataoka}, {Kawai}, {Kn{\"o}dlseder}, {Kuss}, {Lande}, {Latronico}, {Lee}, {Lemoine-Goumard}, {Llena Garde}, {Longo}, {Loparco}, {Lott}, {Lovellette}, {Lubrano}, {Madejski}, {Makeev}, {Mazziotta}, {McConville}, {McEnery}, {Meurer}, {Michelson}, {Mitthumsiri}, {Mizuno}, {Monte}, {Monzani}, {Morselli}, {Moskalenko}, {Murgia}, {Nolan}, {Norris}, {Nuss}, {Ohsugi}, {Omodei}, {Orlando}, {Ormes}, {Ozaki}, {Paneque}, {Panetta}, {Parent}, {Pelassa}, {Pepe}, {Pesce-Rollins}, {Piron}, {Porter}, {Rain{\`o}}, {Rando}, {Razzano}, {Reimer}, {Reimer}, {Ritz}, {Rochester}, {Rodriguez}, {Romani}, {Roth}, {Sadrozinski}, {Sander}, {Saz Parkinson}, {Scargle}, {Sgr{\`o}}, {Shaw}, {Smith}, {Spandre}, {Spinelli}, {Starck}, {Strickman}, {Strong}, {Suson}, {Tajima}, {Takahashi}, {Takahashi}, {Tanaka}, {Thayer}, {Thayer}, {Thompson}, {Tibaldo}, {Torres}, {Tosti}, {Tramacere}, {Uchiyama}, {Usher}, {Vasileiou}, {Vilchez}, {Vitale}, {Waite}, {Wang}, {Winer}, {Wood}, {Yang}, {Ylinen}, {Ziegler}, \& {Fermi LAT Collaboration}}}}
\bibcite{2013ApJS..208...17A}{{6}{2013}{{{Abdo} {et~al.}}}{{{Abdo}, {Ajello}, {Allafort}, {Baldini}, {Ballet}, {Barbiellini}, {Baring}, {Bastieri}, {Belfiore}, {Bellazzini}, \& et~al.}}}
\bibcite{2015ApJS..218...23A}{{7}{2015}{{{Acero} {et~al.}}}{{{Acero}, {Ackermann}, {Ajello}, {Albert}, {Atwood}, {Axelsson}, {Baldini}, {Ballet}, {Barbiellini}, {Bastieri}, {Belfiore}, {Bellazzini}, {Bissaldi}, {Blandford}, {Bloom}, {Bogart}, {Bonino}, {Bottacini}, {Bregeon}, {Britto}, {Bruel}, {Buehler}, {Burnett}, {Buson}, {Caliandro}, {Cameron}, {Caputo}, {Caragiulo}, {Caraveo}, {Casandjian}, {Cavazzuti}, {Charles}, {Chaves}, {Chekhtman}, {Cheung}, {Chiang}, {Chiaro}, {Ciprini}, {Claus}, {Cohen-Tanugi}, {Cominsky}, {Conrad}, {Cutini}, {D'Ammando}, {de Angelis}, {DeKlotz}, {de Palma}, {Desiante}, {Digel}, {Di Venere}, {Drell}, {Dubois}, {Dumora}, {Favuzzi}, {Fegan}, {Ferrara}, {Finke}, {Franckowiak}, {Fukazawa}, {Funk}, {Fusco}, {Gargano}, {Gasparrini}, {Giebels}, {Giglietto}, {Giommi}, {Giordano}, {Giroletti}, {Glanzman}, {Godfrey}, {Grenier}, {Grondin}, {Grove}, {Guillemot}, {Guiriec}, {Hadasch}, {Harding}, {Hays}, {Hewitt}, {Hill}, {Horan}, {Iafrate}, {Jogler}, {J{\'o}hannesson}, {Johnson}, {Johnson}, {Johnson}, {Johnson}, {Kamae}, {Kataoka}, {Katsuta}, {Kuss}, {La Mura}, {Landriu}, {Larsson}, {Latronico}, {Lemoine-Goumard}, {Li}, {Li}, {Longo}, {Loparco}, {Lott}, {Lovellette}, {Lubrano}, {Madejski}, {Massaro}, {Mayer}, {Mazziotta}, {McEnery}, {Michelson}, {Mirabal}, {Mizuno}, {Moiseev}, {Mongelli}, {Monzani}, {Morselli}, {Moskalenko}, {Murgia}, {Nuss}, {Ohno}, {Ohsugi}, {Omodei}, {Orienti}, {Orlando}, {Ormes}, {Paneque}, {Panetta}, {Perkins}, {Pesce-Rollins}, {Piron}, {Pivato}, {Porter}, {Racusin}, {Rando}, {Razzano}, {Razzaque}, {Reimer}, {Reimer}, {Reposeur}, {Rochester}, {Romani}, {Salvetti}, {S{\'a}nchez-Conde}, {Saz Parkinson}, {Schulz}, {Siskind}, {Smith}, {Spada}, {Spandre}, {Spinelli}, {Stephens}, {Strong}, {Suson}, {Takahashi}, {Takahashi}, {Tanaka}, {Thayer}, {Thayer}, {Thompson}, {Tibaldo}, {Tibolla}, {Torres}, {Torresi}, {Tosti}, {Troja}, {Van Klaveren}, {Vianello}, {Winer}, {Wood}, {Wood}, {Zimmer}, \& {Fermi-LAT Collaboration}}}}
\bibcite{2016ApJS..223...26A}{{8}{2016}{{{Acero} {et~al.}}}{{{Acero}, {Ackermann}, {Ajello}, {Albert}, {Baldini}, {Ballet}, {Barbiellini}, {Bastieri}, {Bellazzini}, {Bissaldi}, {Bloom}, {Bonino}, {Bottacini}, {Brandt}, {Bregeon}, {Bruel}, {Buehler}, {Buson}, {Caliandro}, {Cameron}, {Caragiulo}, {Caraveo}, {Casandjian}, {Cavazzuti}, {Cecchi}, {Charles}, {Chekhtman}, {Chiang}, {Chiaro}, {Ciprini}, {Claus}, {Cohen-Tanugi}, {Conrad}, {Cuoco}, {Cutini}, {D'Ammando}, {de Angelis}, {de Palma}, {Desiante}, {Digel}, {Di Venere}, {Drell}, {Favuzzi}, {Fegan}, {Ferrara}, {Focke}, {Franckowiak}, {Funk}, {Fusco}, {Gargano}, {Gasparrini}, {Giglietto}, {Giordano}, {Giroletti}, {Glanzman}, {Godfrey}, {Grenier}, {Guiriec}, {Hadasch}, {Harding}, {Hayashi}, {Hays}, {Hewitt}, {Hill}, {Horan}, {Hou}, {Jogler}, {J{\'o}hannesson}, {Kamae}, {Kuss}, {Landriu}, {Larsson}, {Latronico}, {Li}, {Li}, {Longo}, {Loparco}, {Lovellette}, {Lubrano}, {Maldera}, {Malyshev}, {Manfreda}, {Martin}, {Mayer}, {Mazziotta}, {McEnery}, {Michelson}, {Mirabal}, {Mizuno}, {Monzani}, {Morselli}, {Nuss}, {Ohsugi}, {Omodei}, {Orienti}, {Orlando}, {Ormes}, {Paneque}, {Pesce-Rollins}, {Piron}, {Pivato}, {Rain{\`o}}, {Rando}, {Razzano}, {Razzaque}, {Reimer}, {Reimer}, {Remy}, {Renault}, {S{\'a}nchez-Conde}, {Schaal}, {Schulz}, {Sgr{\`o}}, {Siskind}, {Spada}, {Spandre}, {Spinelli}, {Strong}, {Suson}, {Tajima}, {Takahashi}, {Thayer}, {Thompson}, {Tibaldo}, {Tinivella}, {Torres}, {Tosti}, {Troja}, {Vianello}, {Werner}, {Wood}, {Wood}, {Zaharijas}, \& {Zimmer}}}}
\bibcite{2015ApJ...799...86A}{{9}{2015}{{{Ackermann} {et~al.}}}{{{Ackermann}, {Ajello}, {Albert}, {Atwood}, {Baldini}, {Ballet}, {Barbiellini}, {Bastieri}, {Bechtol}, {Bellazzini}, {Bissaldi}, {Blandford}, {Bloom}, {Bottacini}, {Brandt}, {Bregeon}, {Bruel}, {Buehler}, {Buson}, {Caliandro}, {Cameron}, {Caragiulo}, {Caraveo}, {Cavazzuti}, {Cecchi}, {Charles}, {Chekhtman}, {Chiang}, {Chiaro}, {Ciprini}, {Claus}, {Cohen-Tanugi}, {Conrad}, {Cuoco}, {Cutini}, {D'Ammando}, {de Angelis}, {de Palma}, {Dermer}, {Digel}, {Silva}, {Drell}, {Favuzzi}, {Ferrara}, {Focke}, {Franckowiak}, {Fukazawa}, {Funk}, {Fusco}, {Gargano}, {Gasparrini}, {Germani}, {Giglietto}, {Giommi}, {Giordano}, {Giroletti}, {Godfrey}, {Gomez-Vargas}, {Grenier}, {Guiriec}, {Gustafsson}, {Hadasch}, {Hayashi}, {Hays}, {Hewitt}, {Ippoliti}, {Jogler}, {J{\'o}hannesson}, {Johnson}, {Johnson}, {Kamae}, {Kataoka}, {Kn{\"o}dlseder}, {Kuss}, {Larsson}, {Latronico}, {Li}, {Li}, {Longo}, {Loparco}, {Lott}, {Lovellette}, {Lubrano}, {Madejski}, {Manfreda}, {Massaro}, {Mayer}, {Mazziotta}, {McEnery}, {Michelson}, {Mitthumsiri}, {Mizuno}, {Moiseev}, {Monzani}, {Morselli}, {Moskalenko}, {Murgia}, {Nemmen}, {Nuss}, {Ohsugi}, {Omodei}, {Orlando}, {Ormes}, {Paneque}, {Panetta}, {Perkins}, {Pesce-Rollins}, {Piron}, {Pivato}, {Porter}, {Rain{\`o}}, {Rando}, {Razzano}, {Razzaque}, {Reimer}, {Reimer}, {Reposeur}, {Ritz}, {Romani}, {S{\'a}nchez-Conde}, {Schaal}, {Schulz}, {Sgr{\`o}}, {Siskind}, {Spandre}, {Spinelli}, {Strong}, {Suson}, {Takahashi}, {Thayer}, {Thayer}, {Tibaldo}, {Tinivella}, {Torres}, {Tosti}, {Troja}, {Uchiyama}, {Vianello}, {Werner}, {Winer}, {Wood}, {Wood}, {Zaharijas}, \& {Zimmer}}}}
\bibcite{2014ApJ...793...64A}{{10}{2014}{{{Ackermann} {et~al.}}}{{{Ackermann}, {Albert}, {Atwood}, {Baldini}, {Ballet}, {Barbiellini}, {Bastieri}, {Bellazzini}, {Bissaldi}, {Blandford}, {Bloom}, {Bottacini}, {Brandt}, {Bregeon}, {Bruel}, {Buehler}, {Buson}, {Caliandro}, {Cameron}, {Caragiulo}, {Caraveo}, {Cavazzuti}, {Cecchi}, {Charles}, {Chekhtman}, {Chiang}, {Chiaro}, {Ciprini}, {Claus}, {Cohen-Tanugi}, {Conrad}, {Cutini}, {D'Ammando}, {de Angelis}, {de Palma}, {Dermer}, {Digel}, {Di Venere}, {Silva}, {Drell}, {Favuzzi}, {Ferrara}, {Focke}, {Franckowiak}, {Fukazawa}, {Funk}, {Fusco}, {Gargano}, {Gasparrini}, {Germani}, {Giglietto}, {Giordano}, {Giroletti}, {Godfrey}, {Gomez-Vargas}, {Grenier}, {Guiriec}, {Hadasch}, {Harding}, {Hays}, {Hewitt}, {Hou}, {Jogler}, {J{\'o}hannesson}, {Johnson}, {Johnson}, {Kamae}, {Kataoka}, {Kn{\"o}dlseder}, {Kocevski}, {Kuss}, {Larsson}, {Latronico}, {Longo}, {Loparco}, {Lovellette}, {Lubrano}, {Malyshev}, {Manfreda}, {Massaro}, {Mayer}, {Mazziotta}, {McEnery}, {Michelson}, {Mitthumsiri}, {Mizuno}, {Monzani}, {Morselli}, {Moskalenko}, {Murgia}, {Nemmen}, {Nuss}, {Ohsugi}, {Omodei}, {Orienti}, {Orlando}, {Ormes}, {Paneque}, {Panetta}, {Perkins}, {Pesce-Rollins}, {Petrosian}, {Piron}, {Pivato}, {Rain{\`o}}, {Rando}, {Razzano}, {Razzaque}, {Reimer}, {Reimer}, {S{\'a}nchez-Conde}, {Schaal}, {Schulz}, {Sgr{\`o}}, {Siskind}, {Spandre}, {Spinelli}, {Stawarz}, {Strong}, {Suson}, {Tahara}, {Takahashi}, {Thayer}, {Tibaldo}, {Tinivella}, {Torres}, {Tosti}, {Troja}, {Uchiyama}, {Vianello}, {Werner}, {Winer}, {Wood}, {Wood}, \& {Zaharijas}}}}
\bibcite{Ackermann:2015yfk}{{11}{2015}{{Ackermann {et~al.}}}{{}}}
\bibcite{TheFermi-LAT:2017vmf}{{12}{2017}{{Ackermann {et~al.}}}{{}}}
\bibcite{2016ApJ...819...44A}{{13}{2016}{{{Ajello} {et~al.}}}{{{Ajello}, {Albert}, {Atwood}, {et~al.}}}}
\bibcite{2012ApJ...751..108A}{{14}{2012}{{{Ajello} {et~al.}}}{{{Ajello}, {Shaw}, {Romani}, {Dermer}, {Costamante}, {King}, {Max-Moerbeck}, {Readhead}, {Reimer}, {Richards}, \& {Stevenson}}}}
\bibcite{2017ApJ...834..110A}{{15}{2017}{{{Albert} {et~al.}}}{{{Albert}, {Anderson}, {Bechtol}, {Drlica-Wagner}, {Meyer}, {S{\'a}nchez-Conde}, {Strigari}, {Wood}, {Abbott}, {Abdalla}, {Benoit-L{\'e}vy}, {Bernstein}, {Bernstein}, {Bertin}, {Brooks}, {Burke}, {Carnero Rosell}, {Carrasco Kind}, {Carretero}, {Crocce}, {Cunha}, {D'Andrea}, {da Costa}, {Desai}, {Diehl}, {Dietrich}, {Doel}, {Eifler}, {Evrard}, {Fausti Neto}, {Finley}, {Flaugher}, {Fosalba}, {Frieman}, {Gerdes}, {Goldstein}, {Gruen}, {Gruendl}, {Honscheid}, {James}, {Kent}, {Kuehn}, {Kuropatkin}, {Lahav}, {Li}, {Maia}, {March}, {Marshall}, {Martini}, {Miller}, {Miquel}, {Neilsen}, {Nord}, {Ogando}, {Plazas}, {Reil}, {Romer}, {Rykoff}, {Sanchez}, {Santiago}, {Schubnell}, {Sevilla-Noarbe}, {Smith}, {Soares-Santos}, {Sobreira}, {Suchyta}, {Swanson}, {Tarle}, {Vikram}, {Walker}, {Wechsler}, {Fermi-LAT Collaboration}, \& {DES Collaboration}}}}
\bibcite{2013arXiv1303.3514A}{{16}{2013}{{{Atwood} {et~al.}}}{{{Atwood}, {Albert}, {Baldini}, {Tinivella}, {Bregeon}, {Pesce-Rollins}, {Sgr{\`o}}, {Bruel}, {Charles}, {Drlica-Wagner}, {Franckowiak}, {Jogler}, {Rochester}, {Usher}, {Wood}, {Cohen-Tanugi}, \& {S.~Zimmer for the Fermi-LAT Collaboration}}}}
\bibcite{Bartels:2015aea}{{17}{2016}{{Bartels {et~al.}}}{{Bartels, Krishnamurthy, \& Weniger}}}
\bibcite{bartels:XX}{{18}{2017}{{{Bartels} {et~al.}}}{{}}}
\bibcite{2015ApJ...812...15B}{{19}{2015}{{{Brandt} \& {Kocsis}}}{{}}}
\bibcite{Calore:2014xka}{{20}{2015}{{Calore {et~al.}}}{{Calore, Cholis, \& Weniger}}}
\bibcite{Calore:2014oga}{{21}{2014}{{Calore {et~al.}}}{{Calore, Di~Mauro, Donato, \& Donato}}}
\bibcite{Calore:2015bsx}{{22}{2016}{{Calore {et~al.}}}{{Calore, Di~Mauro, Donato, Hessels, \& Weniger}}}
\bibcite{Carlson:2015ona}{{23}{2016}{{Carlson {et~al.}}}{{Carlson, Linden, \& Profumo}}}
\bibcite{Carlson:2014cwa}{{24}{2014}{{Carlson \& Profumo}}{{}}}
\bibcite{Cholis:2015dea}{{25}{2015{a}}{{Cholis {et~al.}}}{{Cholis, Evoli, Calore, Linden, Weniger, \& Hooper}}}
\bibcite{Cholis:2014noa}{{26}{2014}{{Cholis {et~al.}}}{{Cholis, Hooper, \& Linden}}}
\bibcite{Cholis:2014lta}{{27}{2015{b}}{{Cholis {et~al.}}}{{Cholis, Hooper, \& Linden}}}
\bibcite{2016PDU....12....1D}{{28}{2016}{{{Daylan} {et~al.}}}{{{Daylan}, {Finkbeiner}, {Hooper}, {Linden}, {Portillo}, {Rodd}, \& {Slatyer}}}}
\bibcite{DiMauro:2015tfa}{{29}{2015}{{Di~Mauro \& Donato}}{{}}}
\bibcite{DiMauro:2013zfa}{{30}{2014}{{Di~Mauro {et~al.}}}{{Di~Mauro, Donato, Lamanna, Sanchez, \& Serpico}}}
\bibcite{2011ApJ...742..126D}{{31}{2011}{{{Dormody} {et~al.}}}{{{Dormody}, {Johnson}, {Atwood}, {Belfiore}, {Grenier}, {Johnson}, {Razzano}, \& {Saz Parkinson}}}}
\bibcite{Gaggero:2015nsa}{{32}{2015}{{Gaggero {et~al.}}}{{Gaggero, Taoso, Urbano, Valli, \& Ullio}}}
\bibcite{Ghisellini:2017ico}{{33}{2017}{{Ghisellini {et~al.}}}{{Ghisellini, Righi, Costamante, \& Tavecchio}}}
\bibcite{2009arXiv0910.2998G}{{34}{2009}{{{Goodenough} \& {Hooper}}}{{}}}
\bibcite{2013PhRvD..88h3521G}{{35}{2013}{{{Gordon} \& {Mac{\'{\i }}as}}}{{}}}
\bibcite{Gregoire:2013yta}{{36}{2013}{{Gr{\'e}goire \& Kn{\"o}dlseder}}{{}}}
\bibcite{2016A&A...587A.109G}{{37}{2016}{{{Guillemot} {et~al.}}}{{{Guillemot}, {Smith}, {Laffon}, {Janssen}, {Cognard}, {Theureau}, {Desvignes}, {Ferrara}, \& {Ray}}}}
\bibcite{Hooper:2010mq}{{38}{2011}{{Hooper \& Goodenough}}{{}}}
\bibcite{Hooper:2015jlu}{{39}{2016}{{Hooper \& Mohlabeng}}{{}}}
\bibcite{2013PDU.....2..118H}{{40}{2013}{{{Hooper} \& {Slatyer}}}{{}}}
\bibcite{2010MNRAS.409..619K}{{41}{2010}{{{Keith} {et~al.}}}{{{Keith}, {Jameson}, {van Straten}, {Bailes}, {Johnston}, {Kramer}, {Possenti}, {Bates}, {Bhat}, {Burgay}, {Burke-Spolaor}, {D'Amico}, {Levin}, {McMahon}, {Milia}, \& {Stappers}}}}
\bibcite{2015aska.confE..36K}{{42}{2015}{{{Kramer} \& {Stappers}}}{{}}}
\bibcite{1998ApJ...502...48K}{{43}{1998}{{{Kravtsov} {et~al.}}}{{{Kravtsov}, {Klypin}, {Bullock}, \& {Primack}}}}
\bibcite{10.2307/2033241}{{44}{1956}{{Kruskal}}{{}}}
\bibcite{Lee:2014mza}{{45}{2015}{{Lee {et~al.}}}{{Lee, Lisanti, \& Safdi}}}
\bibcite{2013MNRAS.434.1387L}{{46}{2013}{{{Levin} {et~al.}}}{{{Levin}, {Bailes}, {Barsdell}, {Bates}, {Bhat}, {Burgay}, {Burke-Spolaor}, {Champion}, {Coster}, {D'Amico}, {Jameson}, {Johnston}, {Keith}, {Kramer}, {Milia}, {Ng}, {Possenti}, {Stappers}, {Thornton}, \& {van Straten}}}}
\bibcite{2004IAUS..218..105L}{{47}{2004}{{Lorimer}}{{}}}
\bibcite{2013IAUS..291..237L}{{48}{2013}{{Lorimer}}{{}}}
\bibcite{2005AJ....129.1993M}{{49}{2005}{{{Manchester} {et~al.}}}{{{Manchester}, {Hobbs}, {Teoh}, \& {Hobbs}}}}
\bibcite{1996ApJ...461..396M}{{50}{1996}{{{Mattox} {et~al.}}}{{{Mattox}, {Bertsch}, {Chiang}, {Dingus}, {Digel}, {Esposito}, {Fierro}, {Hartman}, {Hunter}, {Kanbach}, {Kniffen}, {Lin}, {Macomb}, {Mayer-Hasselwander}, {Michelson}, {von Montigny}, {Mukherjee}, {Nolan}, {Ramanamurthy}, {Schneid}, {Sreekumar}, {Thompson}, \& {Willis}}}}
\bibcite{2013MNRAS.436.2461M}{{51}{2013}{{Mirabal}}{{}}}
\bibcite{1996ApJ...462..563N}{{52}{1996}{{{Navarro} {et~al.}}}{{{Navarro}, {Frenk}, \& {White}}}}
\bibcite{OLeary:2015qpx}{{53}{2015}{{O'Leary {et~al.}}}{{O'Leary, Kistler, Kerr, \& Dexter}}}
\bibcite{OLeary:2016cwz}{{54}{2016}{{O'Leary {et~al.}}}{{O'Leary, Kistler, Kerr, \& Dexter}}}
\bibcite{Petrovic:2014uda}{{55}{2014}{{Petrovi{\'c} {et~al.}}}{{Petrovi{\'c}, Serpico, \& Zaharija{\v s}}}}
\bibcite{Petrovic:2014xra}{{56}{2015}{{Petrovi{\'c} {et~al.}}}{{Petrovi{\'c}, Serpico, \& Zaharijas}}}
\bibcite{Steigman:2012nb}{{57}{2012}{{Steigman {et~al.}}}{{Steigman, Dasgupta, \& Beacom}}}
\bibcite{2013CQGra..30v4003S}{{58}{2013}{{{Stovall} {et~al.}}}{{{Stovall}, {Lorimer}, \& {Lynch}}}}
\bibcite{2008Natur.454.1096S}{{59}{2008}{{{Strigari} {et~al.}}}{{{Strigari}, {Bullock}, {Kaplinghat}, {Simon}, {Geha}, {Willman}, \& {Walker}}}}
\bibcite{Strong:2006hf}{{60}{2007}{{Strong}}{{}}}
\bibcite{2010ApJ...724.1044S}{{61}{2010}{{{Su} {et~al.}}}{{{Su}, {Slatyer}, \& {Finkbeiner}}}}
\bibcite{Winter:2016wmy}{{62}{2016}{{Winter {et~al.}}}{{Winter, Zaharijas, Bechtol, \& Vandenbroucke}}}
\bibcite{2014JHEAp...3....1Y}{{63}{2014}{{{Yuan} \& {Zhang}}}{{}}}
\@writefile{toc}{\contentsline {section}{\numberline {A}A. Analysis pipeline and description of \texttt  {Fermipy}\xspace  tools}{15}{appendix.A}}
\newlabel{sec:fermipy}{{A}{15}{A. Analysis pipeline and description of \fermipy tools}{appendix.A}{}}
\citation{2015ApJS..218...23A}
\citation{10.2307/2033241}
\@writefile{lof}{\contentsline {figure}{\numberline {17}{\ignorespaces Left panel: Positional uncertainty contours and best-fit position (solid black lines and x marker) from the localization of 3FGL J1709.5$-$0335. The color scale shows the difference in TS with respect to the best-fit position of the source. The cross is the position of this source in 3FGL. Right panel: TS map of the ROI evaluated with a test source with a point-source morphology and a PL spectrum with photon index of 2. The background model includes the IEM, isotropic template, and 3FGL sources with $TS>49$.}}{16}{figure.17}}
\newlabel{fig:reltsmap}{{17}{16}{Left panel: Positional uncertainty contours and best-fit position (solid black lines and x marker) from the localization of 3FGL J1709.5$-$0335. The color scale shows the difference in TS with respect to the best-fit position of the source. The cross is the position of this source in 3FGL. Right panel: TS map of the ROI evaluated with a test source with a point-source morphology and a PL spectrum with photon index of 2. The background model includes the IEM, isotropic template, and 3FGL sources with $TS>49$}{figure.17}{}}
\@writefile{toc}{\contentsline {section}{\numberline {B}B. Minimum spanning tree source cluster-finding}{16}{appendix.B}}
\newlabel{sec:mst}{{B}{16}{B. Minimum spanning tree source cluster-finding}{appendix.B}{}}
\@writefile{lof}{\contentsline {figure}{\numberline {18}{\ignorespaces SED of 3FGL J1730.6$-$0357 (black points) and best-fit PLE parameterization with $1\sigma $ uncertainty band (black line and gray band).}}{17}{figure.18}}
\newlabel{fig:sed}{{18}{17}{SED of 3FGL J1730.6$-$0357 (black points) and best-fit PLE parameterization with $1\sigma $ uncertainty band (black line and gray band)}{figure.18}{}}
\@writefile{lot}{\contentsline {table}{\numberline {4}{\ignorespaces Contents of the 2FIG source list {\tt  FITS} table.}}{17}{table.4}}
\newlabel{tab:sourcelist}{{4}{17}{Contents of the 2FIG source list {\tt FITS} table}{table.4}{}}
\@writefile{toc}{\contentsline {section}{\numberline {C}C. Source list and contents of FITS file}{17}{appendix.C}}
\newlabel{sec:app2fig}{{C}{17}{C. Source list and contents of FITS file}{appendix.C}{}}
\@writefile{toc}{\contentsline {section}{\numberline {D}D. Generating simulated data with \texttt  {Fermipy}\xspace  }{17}{appendix.D}}
\newlabel{sec:appsim}{{D}{17}{D. Generating simulated data with \fermipy }{appendix.D}{}}
\citation{2010ApJ...720..435A}
\bibstyle{aa}
\@writefile{lof}{\contentsline {figure}{\numberline {19}{\ignorespaces Photon index $\Gamma $ and energy cutoff $E_{\rm  {cut}}[\rm  {MeV}]$ of PSRs (black points) and for a simulated test population of sources isotropically distributed in the sky (red points). See the text for further details on the SED of these sources.}}{18}{figure.19}}
\newlabel{fig:psrcurved}{{19}{18}{Photon index $\Gamma $ and energy cutoff $E_{\rm {cut}}[\rm {MeV}]$ of PSRs (black points) and for a simulated test population of sources isotropically distributed in the sky (red points). See the text for further details on the SED of these sources}{figure.19}{}}
\@writefile{toc}{\contentsline {section}{\numberline {E}E. Testing PSR selection criteria with simulated data}{18}{appendix.E}}
\newlabel{sec:testcurv}{{E}{18}{E. Testing PSR selection criteria with simulated data}{appendix.E}{}}
\newlabel{LastPage}{{}{18}{}{}{}}
